﻿{
  "$schema": "http://json.schemastore.org/launchsettings.json",
  "profiles": {
    "MaintenanceApi": {
      "commandName": "Project",
      "dotnetRunMessages": "true",
      "launchBrowser": false,
      "applicationUrl": "http://localhost:5000",
      "environmentVariables": {
        "ASPNETCORE_ENVIRONMENT": "Development"
      }
    }
  }
}
